{
    "parameters": {
        "keep_columns": [
            "metadata_date_submit",
            "form_pk",
            "completed"
        ],
        "json_column": "answers",
        "id_column": "id"
    },
    "storage": {
        "output": {
            "tables": [
                { "source": "data.csv" }
            ],
            "files": []
        },
        "input": {
            "tables": [
                { "destination": "data.csv" }
            ]
        }
    }
}